{
    "title" : "explain.localhost",

    "secret" : "probablynotimportantforephemeral",

    "database" : {
        "dsn"      : "dbi:Pg:database=depesz_explain;host=db;port=5432",
        "username" : "depesz_explain",
        "password" : "depesz_explain",
        "options"  : {
            "auto_commit" : 1,
            "pg_server_prepare" : 0,
            "RaiseError" : 1,
            "PrintError" : 1
        }
    }
}
